^E:\MINE\ING\MYPROJECTS\DX9UTILITY\DX9UTILITY\DEBUG\ARCBALL.OBJ|E:\MINE\ING\MYPROJECTS\DX9UTILITY\DX9UTILITY\DEBUG\CAMERA.OBJ|E:\MINE\ING\MYPROJECTS\DX9UTILITY\DX9UTILITY\DEBUG\D3DAPP.OBJ|E:\MINE\ING\MYPROJECTS\DX9UTILITY\DX9UTILITY\DEBUG\DIRECTINPUT.OBJ|E:\MINE\ING\MYPROJECTS\DX9UTILITY\DX9UTILITY\DEBUG\UTILITY.OBJ
C:\WINDOWS\GLOBALIZATION\SORTING\SORTDEFAULT.NLS
C:\WINDOWS\SYSTEM32\TZRES.DLL
E:\MINE\ING\MYPROJECTS\DX9UTILITY\DX9UTILITY\DEBUG\ARCBALL.OBJ
E:\MINE\ING\MYPROJECTS\DX9UTILITY\DX9UTILITY\DEBUG\CAMERA.OBJ
E:\MINE\ING\MYPROJECTS\DX9UTILITY\DX9UTILITY\DEBUG\D3DAPP.OBJ
E:\MINE\ING\MYPROJECTS\DX9UTILITY\DX9UTILITY\DEBUG\DIRECTINPUT.OBJ
E:\MINE\ING\MYPROJECTS\DX9UTILITY\DX9UTILITY\DEBUG\UTILITY.OBJ
