^E:\MINE\ING\MYPROJECTS\MYDX9DEMO\DISTANCEFIELDDEMO\DEBUG\MAIN.OBJ
E:\MINE\ING\MYPROJECTS\MYDX9DEMO\DEBUG\DISTANCEFIELDDEMO.ILK
E:\MINE\ING\MYPROJECTS\MYDX9DEMO\DEBUG\DISTANCEFIELDDEMO.EXE
E:\MINE\ING\MYPROJECTS\MYDX9DEMO\DEBUG\DISTANCEFIELDDEMO.PDB
